{
  "development": {
    "username": "root",
    "password": "YPA1koPLNe_i",
    "database": "employee-time-tracker_db",
    "host": "mysql-employee-time-tracker",
    "dialect": "mysql",
    "logging": false
  },
  "production": {
    "username": "root",
    "password": "YPA1koPLNe_i",
    "database": "employee-time-tracker_db",
    "host": "mysql-employee-time-tracker",
    "dialect": "mysql",
    "logging": false
  }
}
